…
$Y_{i} = \beta_{0} + \beta_{1}X_{1i}+...+\beta_{k}X_{ki} + \varepsilon_{i}$

# Assumptions OLS:

1)  Normality
2)  Exogeneity
3)  Lack of perfect multicollinearity
4)  Homoscedasticity
5)  Independence of errors
6)  Linearity

<!-- -->

    ## # A tibble: 17,684 × 4
    ##    trstplt             agea      gender educ                            
    ##    <dbl+lbl>           <dbl+lbl> <fct>  <fct>                           
    ##  1 3 [3]               76        Female Upper tier upper secondary      
    ##  2 6 [6]               43        Male   Lower tertiary education (BA)   
    ##  3 3 [3]               50        Female Higher tertiary education (>=MA)
    ##  4 0 [No trust at all] 51        Female Upper tier upper secondary      
    ##  5 0 [No trust at all] 70        Male   Higher tertiary education (>=MA)
    ##  6 0 [No trust at all] 31        Female Upper tier upper secondary      
    ##  7 5 [5]               40        Male   Upper tier upper secondary      
    ##  8 1 [1]               48        Male   Upper tier upper secondary      
    ##  9 2 [2]               71        Male   Upper tier upper secondary      
    ## 10 0 [No trust at all] 71        Male   Less than lower secondary       
    ## # … with 17,674 more rows
…
