…
Great! Now we know how is the relationship between our variables. Still,
we haven’t tested if this relationship is statistically significant.
Remember that this is relevant since we want our variables to be
strongly related to conduct a factor analysis. To do these significance
test, let us perform some indexing (as we saw in the first class), and a
very simple loop.

``` r
# Remember subsetting?
anxiety[,which(colnames(anxiety)==c("q01", "q02"))]
```

    ## # A tibble: 2,571 × 2
    ##    q01                q02               
    ##    <dbl+lbl>          <dbl+lbl>         
    ##  1 2 [Agree]          1 [Strongly agree]
    ##  2 1 [Strongly agree] 1 [Strongly agree]
    ##  3 2 [Agree]          3 [Neither]       
    ##  4 3 [Neither]        1 [Strongly agree]
    ##  5 2 [Agree]          1 [Strongly agree]
    ##  6 2 [Agree]          1 [Strongly agree]
    ##  7 2 [Agree]          3 [Neither]       
    ##  8 2 [Agree]          2 [Agree]         
    ##  9 3 [Neither]        3 [Neither]       
    ## 10 2 [Agree]          4 [Disagree]      
    ## # … with 2,561 more rows

``` r
anxiety[,c(1,2)]
```

    ## # A tibble: 2,571 × 2
    ##    q01                q02               
    ##    <dbl+lbl>          <dbl+lbl>         
    ##  1 2 [Agree]          1 [Strongly agree]
    ##  2 1 [Strongly agree] 1 [Strongly agree]
    ##  3 2 [Agree]          3 [Neither]       
    ##  4 3 [Neither]        1 [Strongly agree]
    ##  5 2 [Agree]          1 [Strongly agree]
    ##  6 2 [Agree]          1 [Strongly agree]
    ##  7 2 [Agree]          3 [Neither]       
    ##  8 2 [Agree]          2 [Agree]         
    ##  9 3 [Neither]        3 [Neither]       
    ## 10 2 [Agree]          4 [Disagree]      
    ## # … with 2,561 more rows
…
